{
  "entrypoint": "index.html",
  "fragments": [],
  "sources": [
    "index.html"
  ],
  "extraDependencies": [
    "bower_components/webcomponentsjs/*.js",
    "schemas/*.ttl"
  ],
  "builds": [
    {
      "bundle": true,
      "js": {
        "minify": false,
        "compile": false
      },
      "css": {
        "minify": false
      },
      "html": {
        "minify": false
      }
    }
  ],
  "lint": {
    "rules": [
      "polymer-2"
    ]
  }
}
